…
I am quite sure these are quite self-explanatory with the name of the
variable. It means the nnumber of rows that are missing.

## Question 2

``` r
transmute(flights, 
          dep_time, 
          minute = ((dep_time %/% 100) * 60) + (dep_time %% 100))
```

    ## # A tibble: 336,776 x 2
    ##    dep_time minute
    ##       <int>  <dbl>
    ##  1      517    317
    ##  2      533    333
    ##  3      542    342
    ##  4      544    344
    ##  5      554    354
    ##  6      554    354
    ##  7      555    355
    ##  8      557    357
    ##  9      557    357
    ## 10      558    358
    ## # … with 336,766 more rows
…
